﻿
special = {

	usage = game

	eyelashes = {
		dna_modifiers = {
			accessory = {
				mode = replace				
				gene = eyelashes_accessory
				template = no_eyelashes
				value = 0.5
			}
		}
		weight = {
			base = 0
			modifier = {
				add = 200
				age < 10
			}
		}
	}


## So that the Prophet Muhammad does not have a portrait ## 

	no_portrait = {
		dna_modifiers = {
			morph = {
				mode = replace				
				gene = gene_bs_body_type
				template = no_portrait
				value = 1.0
			}
			morph = {
				mode = replace				
				gene = complexion
				template = complexion_no_face
				value = 1.0
			}
			morph = {
				mode = replace				
				gene = gene_age
				template = no_aging
				value = 1.0
			}
			morph = {
				mode = modify				
				gene = gene_eyebrows_shape
				template = no_eyebrows
				value = 0.5
			}
			morph = {
				mode = modify				
				gene = gene_eyebrows_fullness
				template = no_eyebrows
				value = 0.5
			}
			accessory = {
				mode = add				
				gene = clothes
				template = no_clothes
				value = 0.5
			}
			accessory = {
				mode = modify				
				gene = eye_accessory
				template = no_eyes
				value = 0.5
			}
			accessory = {
				mode = modify				
				gene = teeth_accessory
				template = no_teeth
				value = 0.5
			}
			accessory = {
				mode = add				
				gene = props
				template = prophet_shield
				value = 0.5
			}

		}
		weight = {
			base = 0
		}
	}


}
