﻿grant_titles_interaction = {

	category = interaction_category_vassal
	common_interaction = yes

	desc = grant_titles_interaction_desc

	special_interaction = grant_titles_interaction
	interface = grant_titles
	target_type = title
	target_filter = actor_domain_titles
	interface_priority = 60

	# actor character giving the titles
	# recipient character receiving the titles

	is_shown = {
		NOT = { scope:actor = scope:recipient }
		scope:recipient = {
			OR = {
				target_is_liege_or_above = scope:actor
				is_pool_guest_of = scope:actor
				AND = {
					scope:actor.faith.religious_head = scope:recipient
					is_independent_ruler = yes
				}
			}
		}
	}
	
	is_valid_showing_failures_only = {
		scope:recipient = {
			OR = {
				can_be_granted_titles_by = { RULER = scope:actor }
				can_be_granted_theocratic_titles_by = { RULER = scope:actor }
			}
		}
		NOT = { scope:actor = { is_at_war_with = scope:recipient } }
		NOT = { scope:recipient = { has_trait = devoted } } # Monks are disinherited, and should not have land granted to them
		custom_description = {
			text = is_not_theocratic_court_chaplain
			subject = scope:recipient
			NAND = {
				scope:actor.faith = {
					has_doctrine = doctrine_theocracy_temporal
				}
				scope:recipient = {
					faith = {
						has_doctrine = doctrine_theocracy_temporal
					}
					has_council_position = councillor_court_chaplain
				}
				NOT = { scope:actor.faith.religious_head = scope:recipient }
			}
		}
		scope:actor = {
			any_held_title = {
				count > 1
			}
		}
		scope:recipient = { is_diplomatically_available = yes }
		trigger_if = {
			limit = {
				scope:recipient = {
					is_ruler = no
				}
			}
			scope:recipient = {
				is_imprisoned = no
			}
		}
	}
	
	can_be_picked_title = {
		scope:target = {
			is_leased_out = no
			trigger_if = {
				limit = {
					scope:recipient = scope:actor.player_heir
					scope:actor = { has_partition_succession_realm_law_trigger = yes }
				}
				custom_description = {
					text = partition_primary_heir_unfair
					subject = scope:recipient
					current_heir = scope:recipient
				}
			}
			trigger_if = {
				limit = { scope:target = title:k_fashion }
				NOT = { scope:target = title:k_fashion }
			}
		}

		custom_description = {
			text = grant_titles_interaction_children_not_allowed_temple 
			subject = scope:recipient
			NOR = {
				AND = {
					scope:recipient = {
						is_adult = no
					}
					scope:target = {
						tier = tier_barony
						title_province = { has_building_with_flag = temple }
					}
				}
				AND = {
					scope:recipient = {
						is_adult = no
					}
					scope:target = {
						tier = tier_county 

						title_province = { 
							is_county_capital = yes
							has_building_with_flag = temple 
						}
					}
				}
			}
		}

		custom_description = {
			text = grant_titles_interaction_title_being_wagered
			NOT = {
				scope:target = { has_variable = wagered_county }
			}
		}
	}

	auto_accept = yes

	on_auto_accept = {
		scope:recipient = {
			trigger_event = char_interaction.0110
		}
	}
	
	on_accept = {
		scope:recipient = {
			if = {
				limit = {
					is_independent_ruler = yes
					save_temporary_scope_as = recipient_is_independent
				}
			}
			if = {
				limit = {
					NAND = {
						has_relation_friend = scope:actor
						has_relation_lover = scope:actor
						has_relation_soulmate = scope:actor
						has_relation_best_friend = scope:actor
					}
				}
				if = {
					# then verify the right struggle phase
					limit = {
						is_diff_faith_or_culture_trigger = {
							CHAR = scope:actor
							STATUS = involved
							STRUGGLE_TYPE = iberian_struggle
						}
						any_character_struggle = {
							involvement = involved
							is_struggle_type = iberian_struggle
							has_struggle_phase_parameter = struggle_grant_titles_diff_faith_culture_to_leads_to_friendship
						}
					}
					progress_towards_friend_effect = {
						CHARACTER = scope:actor
						OPINION = no
					}
				}
			}
		}

		if = {
			limit = {
				any_in_list = {
					list = target_titles
					tier = tier_county
					culture = scope:recipient.culture
					NOR = {
						culture = scope:actor.culture
						recent_history = {
							type = granted
							years = 10
						}
					}
				}
			}
			alternative_limit = {
				any_in_list = {
					list = target_titles
					tier >= tier_duchy
					title_capital_county = {
						NOT = { culture = scope:actor.culture }
						culture = scope:recipient.culture
					}
					NOT = {
						recent_history = {
							type = granted
							years = 10
						}
					}
				}
			}
			scope:recipient.culture = {
				change_cultural_acceptance = {
					target = scope:actor.culture
					value = grant_title_cultural_acceptance_impact
					desc = cultural_acceptance_gain_granted_title
				}
			}
		}
		if = {
			limit = {
				any_in_list = {
					list = target_titles
					tier = tier_county
				}
				scope:actor.culture = { has_cultural_parameter = grants_to_lowborns_bonuses }
				scope:recipient = {
					is_lowborn = yes
				}
			}
			every_in_list = {
				list = target_titles
				limit = { tier = tier_county }
				change_county_control = 30
			}
			scope:recipient = {
				add_trait = peasant_leader
			}
		}
		if = {
			limit = {
				any_in_list = {
					list = target_titles
					tier >= tier_county
				}
				scope:actor.culture = { has_cultural_parameter = landing_house_members_give_prestige }
				exists = scope:actor.house
				exists = scope:recipient.house
				scope:actor.house = scope:recipient.house
			}
			scope:actor = {
				add_prestige = {
					value = 0
					every_in_list = {
						list = target_titles
						limit = { tier = tier_empire }
						add = massive_prestige_gain
					}
					every_in_list = {
						list = target_titles
						limit = { tier = tier_kingdom }
						add = major_prestige_gain
					}
					every_in_list = {
						list = target_titles
						limit = { tier = tier_duchy }
						add = medium_prestige_gain
					}
					every_in_list = {
						list = target_titles
						limit = { tier = tier_county }
						add = minor_prestige_gain
					}
				}
			}
		}
		if = {
			limit = {
				any_in_list = {
					list = target_titles
					tier >= tier_county
				}
				scope:actor.culture = { has_cultural_parameter = landing_house_members_gives_renown }
				exists = scope:actor.house
				exists = scope:recipient.house
				scope:actor.house = scope:recipient.house
			}
			scope:actor.dynasty = {
				add_dynasty_prestige = {
					value = 0
					every_in_list = {
						list = target_titles
						limit = { tier = tier_empire }
						add = massive_dynasty_prestige_gain
					}
					every_in_list = {
						list = target_titles
						limit = { tier = tier_kingdom }
						add = major_dynasty_prestige_gain
					}
					every_in_list = {
						list = target_titles
						limit = { tier = tier_duchy }
						add = medium_dynasty_prestige_gain
					}
					every_in_list = {
						list = target_titles
						limit = { tier = tier_county }
						add = minor_dynasty_prestige_gain
					}
				}
			}
		}
		every_in_list = {
			list = target_titles
			save_temporary_scope_as = this_title
			if = {
				limit = {
					exists = scope:landed_title
				}
				scope:recipient = {
					if = {
						limit = {
							scope:this_title.tier = tier_barony
						}

						hidden_effect = {
							add_opinion = {
								target = scope:actor
								modifier = received_title_barony
							}
						}

						scope:this_title = { add_to_temporary_list = titles_to_grant }

						hidden_effect = {
							if = {
								limit = {
									is_a_faction_member = yes
								}
								add_joined_faction_discontent = -5
							}
						}
					}

					else_if = {
						limit = {
							scope:this_title.tier = tier_county
						}

						hidden_effect = {
							add_opinion = {
								target = scope:actor
								modifier = received_title_county
							}
						}

						scope:this_title = { add_to_temporary_list = titles_to_grant }

						hidden_effect = {
							if = {
								limit = {
									is_a_faction_member = yes
								}
								add_joined_faction_discontent = -10
							}
						}
					}

					else_if = {
						limit = {
							scope:this_title.tier = tier_duchy
						}

						hidden_effect = {
							add_opinion = {
								target = scope:actor
								modifier = received_title_duchy
							}
						}

						scope:this_title = { add_to_temporary_list = titles_to_grant }

						hidden_effect = {
							if = {
								limit = {
									is_a_faction_member = yes
								}
								add_joined_faction_discontent = -20
							}
						}
					}

					else_if = {
						limit = {
							scope:this_title.tier = tier_kingdom
						}

						hidden_effect = {
							add_opinion = {
								target = scope:actor
								modifier = received_title_kingdom
							}
						}

						scope:this_title = { add_to_temporary_list = titles_to_grant }

						hidden_effect = {
							if = {
								limit = {
									is_a_faction_member = yes
								}
								add_joined_faction_discontent = -40
							}
						}
					}

					else_if = {
						limit = { scope:this_title.tier = tier_empire }

						add_opinion = {
							target = scope:actor
							modifier = received_title_empire
						}

						hidden_effect = {
							if = {
								limit = {
									is_a_faction_member = yes
								}
								add_joined_faction_discontent = -60
							}
						}

						scope:this_title = { add_to_temporary_list = titles_to_grant }
					}
				}

				#Promised a vassal this title they had a claim on (vassal.2901)
				if = {
					limit = {
						scope:actor = {
							exists = var:was_promised_title
							var:was_promised_title = scope:recipient
						}
					}
					if = {
						limit = {
							scope:recipient = {
								exists = var:promised_title
							}
							scope:landed_title = scope:recipient.var:promised_title
						}
						scope:actor = {
							trigger_event = {
								id = vassal.2910
								days = { 7 14 }
							}
						}
					}
				}
			}
			if = {
				limit = {
					scope:recipient = {
						has_trait = bastard
					}
				}
				custom_tooltip = grant_title_to_bastard_dynasty_warning
			}
		}

		if = {
			limit = {
				any_in_list = {
					list = target_titles
					tier = tier_empire
				}
			}
			custom_tooltip = grant_title_modifier_stack_empires
		}
		if = {
			limit = {
				any_in_list = {
					list = target_titles
					tier = tier_kingdom
				}
			}
			custom_tooltip = grant_title_modifier_stack_kingdoms
		}
		if = {
			limit = {
				any_in_list = {
					list = titles_to_grant
					tier = tier_duchy
				}
			}
			custom_tooltip = grant_title_modifier_stack_duchies
		}
		if = {
			limit = {
				any_in_list = {
					list = titles_to_grant
					tier = tier_county
				}
			}
			custom_tooltip = grant_title_modifier_stack_counties
		}
		if = {
			limit = {
				any_in_list = {
					list = titles_to_grant
					tier = tier_barony
				}
			}
			custom_tooltip = grant_title_modifier_stack_baronies
		}
		if = {
			limit = {
				scope:recipient = { is_a_faction_member = yes }
			}
			custom_tooltip = grant_title_modifier_stack_discontent
		}

		#Stress impact
		scope:actor = {
			if = {
				limit = {
					any_in_list = {
						list = target_titles
						trigger_if = {
							limit = { tier = tier_barony }
							title_province.barony = {
								has_wrong_holding_type = no
							}
						}
						count >= 1
					}
				}

				# Gnostics lose stress for giving away titles.
				if = {
					limit = {
						scope:actor = {
							faith = {
								has_doctrine_parameter = granting_titles_gives_stress
							}
						}
					}
					scope:actor = {
						add_stress = {
							value = 0

							# Base stress value scaled on title tier.
							every_in_list = {
								list = target_titles

								add = {
									value = 0

									if = {
										limit = { this.tier = tier_county }
										add = minor_stress_loss # 10 base
									}
									else_if = {
										limit = { this.tier = tier_duchy }
										add = {
											value = medium_stress_loss
											multiply = 1.25 # 25 base
										}
									}
									else_if = {
										limit = { this.tier = tier_kingdom }
										add = {
											value = major_stress_loss
											multiply = 2 # 80 base
										}
									}
									else_if = {
										limit = { this.tier = tier_empire }
										add = {
											value = monumental_stress_loss 
											multiply = 2 # 200 base
										}
									}

									# Lose more stress for giving away titles of your primary tier; lose less stress for giving away titles far below your primary in tier.
									multiply = {
										value = this.tier
										add = 1
										divide = scope:actor.primary_title.tier
									}

									# Round to the nearest multiple of 5.
									divide = 5
									round = yes
									multiply = 5

									# For a Duke, this will be x1.25 for Duchies (-30) and x1 for Counties(-10)
									# For a King, this will be x1.25 for a Kingdom (-100), x1 for a Duchy (-25) and x0.75 for Counties(-10)
									# For an Emperor, this will be x1.25 for an Empire(-200), x1 for a Kingdom(-80), x0.75 for a Duchy(-20) and x0.4 for a Counties (-5)
								}
							}
						}
					}
				}

				# Greedy & ambitious ruler gain stress for giving away titles if they would normally be able to keep them.
				if = {
					limit = {
						# Pre-filter 
						OR = {
							has_trait = greedy
							has_trait = ambitious
						}
						domain_size <= domain_limit # Not over my domain limit
						any_in_list = {
							list = target_titles
							tier <= tier_county # At least 1 selected title counts toward domain limit
						}

						# Special exemption for lieges who are over their held duchy limit, which are giving away that duchy (and associated counties) specifically
						trigger_if = {
							limit = {
								has_too_many_held_duchies_trigger = yes
							}
							NOT = {				
								# Granting at least 1 duchy
								any_in_list = {
									list = target_titles
									title_counts_towards_too_many_duchies_trigger = yes
									save_temporary_scope_as = granted_duchy

									# All counties being granted are De Jure part of the duchy that is being granted
									any_in_list = {
										list = target_titles
										count = all 
										trigger_if = {
											limit = { tier = tier_county}
											de_jure_liege = scope:granted_duchy
										}
									}
								}
							}
						}
					}
					# Actual stress gain effects
					if = {
						limit = {
							domain_size = domain_limit
						}
						stress_impact = {
							greedy = minor_stress_impact_gain
							ambitious = minor_stress_impact_gain
						}
					}
					else_if = {
						limit = {
							domain_size < domain_limit
						}
						stress_impact = {
							greedy = medium_stress_impact_gain
							ambitious = medium_stress_impact_gain
						}
					}
				}
			}

			# Maintenance for runestones
			if = {
				limit = {
					# Use expanded version if we have FP1.
					has_fp1_dlc_trigger = yes
					fp1_remove_stele_new_holder_trigger = {
						TITLE = scope:target
						PREVIOUS_HOLDER = scope:actor
						NEW_HOLDER = scope:recipient
					}
				}
				# Actually removed in fp1_other_decisions.0113
				custom_tooltip = runestone_grant_title_warning
			}
			else_if = {
				limit = {
					scope:target = {
						exists = var:ancestor_to_bury
						has_county_modifier = county_raised_runestone_modifier
					}
					NOT = { scope:recipient.dynasty = var:ancestor_to_bury.dynasty } #We only have to change something if the new holder is of a different dynasty
				}
				# Actually removed in religious_decision.0312
				custom_tooltip = runestone_grant_title_warning
			}
			
			if = {
				limit = {
					exists = scope:actor.dynasty
					scope:actor.dynasty = {
						has_dynasty_perk = ep1_culture_legacy_3
					}
					scope:recipient = {
						is_landed = no
						NOT = {
							culture = scope:actor.culture
						}
						any_in_list = {
							list = target_titles
							OR = {
								tier = tier_county
								tier = tier_barony
							}
							culture = scope:recipient.culture
						}
					}
				}
				scope:actor = {
					if = {
						limit = {
							can_add_hook = {
								target = scope:recipient
								type = favor_hook
							}
						}
						add_hook = {
							type = favor_hook
							target = scope:recipient
						}
					}
				}
			}

			#Feedback for actor
			hidden_effect = {
				if = {
					limit = {
						any_in_list = {
							list = target_titles
							count = 1
							NOT = { tier = scope:actor.highest_held_title_tier }
						}
						NOT = { exists = scope:recipient_is_independent }
						scope:recipient = {
							any_held_title = {
								tier > tier_barony
								NOT = {
									is_in_list = target_titles
								}
							}
						}
					}
					random_in_list = {
						list = target_titles
						save_temporary_scope_as = loc_title
					}
					send_interface_toast = {
						title = grant_titles_interaction_notification
					
						left_icon = scope:actor					
						right_icon = scope:recipient
					
						custom_tooltip = grant_titles_interaction_notification_effect_2
					}
				}
				else_if = {
					limit = {
						any_in_list = {
							list = target_titles
							count > 1
							NOT = { tier = scope:actor.highest_held_title_tier }
						}
						NOT = { exists = scope:recipient_is_independent }
						scope:recipient = {
							any_held_title = {
								tier > tier_barony
								NOT = {
									is_in_list = target_titles
								}
							}
						}
					}
					random_in_list = {
						list = target_titles
						save_temporary_scope_as = loc_title
					}
					send_interface_toast = {
						title = grant_titles_interaction_notification
					
						left_icon = scope:actor					
						right_icon = scope:recipient
					
						custom_tooltip = grant_titles_interaction_notification_effect_3
					}
				}
				else_if = {
					limit = {
						exists = scope:recipient_is_independent
					}

					random_in_list = {
						list = target_titles
						save_temporary_scope_as = loc_title
					}
					send_interface_toast = {
						title = grant_titles_interaction_notification
					
						left_icon = scope:actor					
						right_icon = scope:recipient
					
						custom_tooltip = grant_titles_interaction_notification_effect_6
					}
				}
				else_if = {
					limit = {
						scope:recipient = {
							any_in_list = { #Became independent from you, but still have the same liege
								list = target_titles
								tier = scope:actor.highest_held_title_tier
							}
							top_liege = scope:actor.top_liege
						}
					}
					send_interface_toast = {
						title = grant_titles_interaction_notification
					
						left_icon = scope:actor					
						right_icon = scope:recipient
					
						custom_tooltip = grant_titles_interaction_notification_effect_5
					}
				}
				else_if = {
					limit = {
						scope:recipient = {
							any_in_list = { #Became independent
								list = target_titles
								tier = scope:actor.highest_held_title_tier
							}
						}
					}
					send_interface_toast = {
						title = grant_titles_interaction_notification
					
						left_icon = scope:actor					
						right_icon = scope:recipient
					
						custom_tooltip = grant_titles_interaction_notification_effect_4
					}
				}
				else = {
					send_interface_toast = {
						title = grant_titles_interaction_notification

						left_icon = scope:actor					
						right_icon = scope:recipient

						custom_tooltip = grant_titles_interaction_notification_effect
					}
				}
			}
		}
	}
}

#This interaction is referenced in code! If it's renamed you have to ping a coder
grant_title_to_new_random_character_interaction = {
	hidden = yes
	auto_accept = yes
	special_interaction = grant_titles_interaction
	use_diplomatic_range = no

	is_valid_showing_failures_only = {
		scope:actor = {
			NOT = {
				this = scope:recipient
			}
			any_held_title = {
				count > 1
			}
		}
		scope:recipient = { is_diplomatically_available = yes }
	}
}
