﻿################################
# SOCIETAL CULTURAL TRADITIONS #
################################

tradition_xenophilic = {
	category = societal

	layers = {
		0 = learning
		1 = mena
		4 = conversation.dds
	}
	
	can_pick = {
		custom_tooltip = {
			text = culture_acceptance_trigger_desc
			any_culture_global = {
				count >= xenophilic_nr_of_cultures_value
				NOT = { this = prev }
				cultural_acceptance = { target = prev value >= xenophilic_acceptance_value }
			}
		}
	}
	
	culture_modifier = {
		cultural_acceptance_gain_mult = 0.25
	}
	character_modifier = {
		different_culture_opinion = 10
		ignore_negative_opinion_of_culture = yes
	}
	
	cost = {
		prestige = {
			add = {
				value = tradition_base_cost
				desc = BASE
				format = "BASE_VALUE_FORMAT"
			}
			if = {
				limit = {
					NOR = {
						any_in_list = { list = traits this = flag:ethos_communal }
						any_in_list = { list = traits this = flag:ethos_egalitarian }
						#any_in_list = { list = traits this = flag:ethos_bureaucratic }
					}
				}
				add = {
					value = tradition_incompatible_ethos_penalty
					desc = not_communal_or_egalitarian_desc
				}
			}
			if = {
				limit = {
					NOT = {
						any_culture_global = {
							count >= xenophilic_nr_of_cultures_cost_value
							NOT = { this = prev }
							cultural_acceptance = { target = prev value >= xenophilic_acceptance_cost_value }
						}
					}
				}
				add = {
					value = tradition_unfulfilled_criteria_penalty
					desc = culture_acceptance_cost_desc
				}
			}

			multiply = tradition_replacement_cost_if_relevant
		}
	}
	
	ai_will_do = {
		value = 100
		if = {
			limit = { # Avoid stacking similar traditions
				any_in_list = { list = traits this = flag:tradition_culture_blending }
			}
			multiply = 0.25
		}
		if = {
			limit = { # If you like to invade people, don't pick this tradition
				any_in_list = { list = traits this = flag:tradition_malleable_invaders }
			}
			multiply = 0
		}
	
	}
}

tradition_hard_working = {
	category = societal

	layers = {
		0 = diplo
		1 = indian
		4 = tools.dds
	}
	
	parameters = {
		development_gain_on_building_complete = yes
	}
	character_modifier = {
		build_speed = -0.15
		stress_gain_mult = 0.15
	}
	
	cost = {
		prestige = {
			add = {
				value = tradition_base_cost
				desc = BASE
				format = "BASE_VALUE_FORMAT"
			}
			if = {
				limit = {
					NOR = {
						any_in_list = { list = traits this = flag:ethos_bellicose }
						any_in_list = { list = traits this = flag:ethos_stoic }
						any_in_list = { list = traits this = flag:ethos_communal }
					}
				}
				add = {
					value = tradition_incompatible_ethos_penalty
					desc = not_bellicose_stoic_or_communal_desc
				}
			}
			if = {
				limit = {
					trigger_if = {
						limit = {
							scope:character = {
								is_ai = no
							}
						}
						NOT = {
							any_ruler = {
								count >= 5
								culture = prev
								primary_title.tier >= tier_county
								has_trait = diligent
							}
						}
					}
					trigger_else = {
						always = no
					}
				}
				add = {
					value = tradition_unfulfilled_criteria_penalty
					desc = rulers_with_diligent_desc
				}
			}
			
			multiply = tradition_replacement_cost_if_relevant
		}
	}
	
	ai_will_do = {
		value = 100
		if = {
			limit = {
				NOR = {
					any_in_list = { list = traits this = flag:ethos_stoic }
					any_in_list = { list = traits this = flag:ethos_communal }
				}
			}
			multiply = 0.5
		}
	}
}

tradition_loyal_soldiers = {
	category = societal

	layers = {
		0 = diplo
		1 = mena
		4 = diplomat.dds
	}
	
	parameters = {
		doesnt_care_about_culture_faith_in_factions = yes
		wants_to_learn_liege_language = yes
		extra_learn_language_success_chance_vs_liege = yes
	}
	character_modifier = {
		opinion_of_liege = 10
	}
	county_modifier = {
		county_opinion_add = 5
	}
	
	cost = {
		prestige = {
			add = {
				value = tradition_base_cost
				desc = BASE
				format = "BASE_VALUE_FORMAT"
			}
			if = {
				limit = {
					NOR = {
						any_in_list = { list = traits this = flag:ethos_bellicose }
						any_in_list = { list = traits this = flag:ethos_stoic }
						any_in_list = { list = traits this = flag:ethos_communal }
					}
				}
				add = {
					value = tradition_incompatible_ethos_penalty
					desc = not_bellicose_stoic_or_communal_desc
				}
			}
			if = {
				limit = {
					trigger_if = {
						limit = {
							scope:character = {
								is_ai = no
							}
						}
						NOT = {
							any_ruler = {
								count >= 3
								culture = prev
								primary_title.tier >= tier_county
								is_independent_ruler = no
								NOT = {
									culture = liege.culture
								}
							}
						}
					}
					trigger_else = {
						always = no
					}
				}
				add = {
					value = tradition_unfulfilled_criteria_penalty
					desc = rulers_under_another_culture_desc
				}
			}
			
			multiply = tradition_replacement_cost_if_relevant
		}
	}
	
	ai_will_do = {
		value = 100
		if = {
			limit = {
				is_divergent_culture = no
			}
			multiply = 0
		}
	}
}

tradition_pacifism = {
	category = societal

	layers = {
		0 = learning
		1 = indian
		4 = diplomacy.dds
	}
	
	can_pick = {
		custom_description = {
			text = culture_not_bellicose
			NOT = {
				any_in_list = { list = traits this = flag:ethos_bellicose }
			}
		}
		culture_not_warlike_trigger = yes
	}
	
	parameters = {
		reduced_cost_for_conversion_to_pacifist_faith = yes
	}

	county_modifier = {
		development_growth_factor = 0.1
		county_opinion_add = 10
	}
	character_modifier = {
		martial = -1
		monthly_martial_lifestyle_xp_gain_mult = -0.2
		
		ai_war_chance = -0.75
		ai_war_cooldown = 10
		ai_boldness = -25
		ai_compassion = 25
	}
	
	cost = {
		prestige = {
			add = {
				value = tradition_base_cost
				desc = BASE
				format = "BASE_VALUE_FORMAT"
			}
			if = {
				limit = {
					NOR = {
						any_in_list = { list = traits this = flag:ethos_egalitarian }
						any_in_list = { list = traits this = flag:ethos_spiritual }
					}
				}
				add = {
					value = tradition_incompatible_ethos_penalty
					desc = not_spiritual_or_egalitarian_desc
				}
			}
			if = {
				limit = {
					scope:character = {
						is_at_war = yes
					}
				}
				add = {
					value = tradition_unfulfilled_criteria_penalty
					desc = is_at_war_desc
				}
			}
			
			multiply = tradition_replacement_cost_if_relevant
		}
	}
	
	ai_will_do = {
		value = 0
	}
}

tradition_spartan = {
	category = societal

	layers = {
		0 = steward
		1 = indian
		4 = council.dds
	}
	
	is_shown = {
		NOT = {
			scope:character = {
				has_government = tribal_government
			}
		}
	}
	
	character_modifier = {
		monthly_prestige_gain_mult = -0.35
		#Replace with something else ?
		#castle_holding_build_speed = -0.2
		#castle_holding_build_gold_cost = -0.2
		#castle_holding_holding_build_gold_cost = -0.2
		#castle_holding_holding_build_speed = -0.2
	}
	
	cost = {
		prestige = {
			add = {
				value = tradition_base_cost
				desc = BASE
				format = "BASE_VALUE_FORMAT"
			}
			if = {
				limit = {
					NOR = {
						any_in_list = { list = traits this = flag:ethos_stoic }
						any_in_list = { list = traits this = flag:ethos_communal }
					}
				}
				add = {
					value = tradition_incompatible_ethos_penalty
					desc = not_stoic_or_communal_desc
				}
			}
			if = {
				limit = {
					scope:character.prestige_level >= 3
				}
				add = {
					value = tradition_unfulfilled_criteria_penalty
					desc = prestige_level_desc
				}
			}
			
			multiply = tradition_replacement_cost_if_relevant
		}
	}
	
	ai_will_do = {
		value = 50
		if = {
			limit = {
				is_divergent_culture = no
			}
			multiply = 0
		}
	}
}

tradition_diasporic = {
	category = societal

	layers = {
		0 = learning
		1 = mediterranean
		4 = noble.dds
	}

	# Disaporic peoples are marginalized people who have lost their traditional homeland and been forced to live elsewhere. Any hybrid or divergent culture will, by definition, have a new homeland. As a result, new cultures can never pick this tradition, and only historical cultures may start with it.
	is_shown = { always = no }
	can_pick = { always = no }
	
	parameters = {
		wanderers_learn_languages = yes
		extra_language_cap = yes
	}

	character_modifier = {
		stewardship = 1
		learning = 1
		ignore_negative_opinion_of_culture = yes
		diplomatic_range_mult = 0.2
	}
	
	cost = { prestige = 9999 }
	ai_will_do = { value = 0 }
}

tradition_hunters = {
	category = societal

	layers = {
		0 = intrigue
		1 = mediterranean
		4 = hunter.dds
	}
	
	can_pick = {
		culture_not_pacifistic_trigger = yes
		custom_tooltip = {
			text = cannot_have_tradition_vegetarianism
			NOT = { any_in_list = { list = traits this = flag:tradition_vegetarianism } }
		}
	}
	
	parameters = {
		more_frequent_hunts = yes
		hunting_traits_more_valued = yes
		hunting_traits_more_common = yes
	}
	
	cost = {
		prestige = {
			add = {
				value = tradition_base_cost
				desc = BASE
				format = "BASE_VALUE_FORMAT"
			}
			if = {
				limit = {
					NOR = {
						any_in_list = { list = traits this = flag:ethos_bellicose }
						any_in_list = { list = traits this = flag:ethos_spiritual }
						any_in_list = { list = traits this = flag:ethos_stoic }
					}
				}
				add = {
					value = tradition_incompatible_ethos_penalty
					desc = not_bellicose_spiritual_or_stoic_desc
				}
			}
			if = {
				limit = {
					trigger_if = {
						limit = {
							scope:character = {
								is_ai = no
							}
						}
						NOT = {
							any_ruler = {
								count >= 5
								culture = prev
								primary_title.tier >= tier_county
								has_trait = lifestyle_hunter
							}
						}
					}
					trigger_else = {
						always = no
					}
				}
				add = {
					value = tradition_unfulfilled_criteria_penalty
					desc = rulers_with_hunter_lifestyle_desc
				}
			}
			
			multiply = tradition_replacement_cost_if_relevant
		}
	}
	
	ai_will_do = {
		value = 100
		if = {
			limit = {
				scope:character = {
					has_government = tribal_government
				}
			}
			multiply = 0
		}
	}
}

tradition_vegetarianism = {
	category = societal

	layers = {
		0 = intrigue
		1 = mediterranean
		4 = food.dds
	}
	
	is_shown = {
	}
	can_pick = {
		custom_tooltip = {
			text = cannot_have_tradition_sacred_hunts
			NOT = { any_in_list = { list = traits this = flag:tradition_sacred_hunts } }
		}
		custom_tooltip = {
			text = cannot_have_tradition_hunters
			NOT = { any_in_list = { list = traits this = flag:tradition_hunters } }
		}
	}
	can_pick_for_hybridization = {
		custom_tooltip = {
			text = cannot_have_vegetarianism_and_sacred_hunts
			NOT = { any_in_list = { list = traits this = flag:tradition_sacred_hunts } }
		}
		custom_tooltip = {
			text = cannot_have_vegetarianism_and_hunters
			NOT = { any_in_list = { list = traits this = flag:tradition_hunters } }
		}
	}
	
	parameters = {
		cannot_hunt = yes
	}
	character_modifier = {
		health = 0.25
	}
	county_modifier = {
		plains_development_growth_factor = 0.1
	}
	
	cost = {
		prestige = {
			add = {
				value = tradition_base_cost
				desc = BASE
				format = "BASE_VALUE_FORMAT"
			}
			if = {
				limit = {
					NOR = {
						any_in_list = { list = traits this = flag:ethos_communal }
						any_in_list = { list = traits this = flag:ethos_spiritual }
						any_in_list = { list = traits this = flag:ethos_stoic }
					}
				}
				add = {
					value = tradition_incompatible_ethos_penalty
					desc = not_communal_spiritual_or_stoic_desc
				}
			}
			
			multiply = tradition_replacement_cost_if_relevant
		}
	}
	
	ai_will_do = {
		value = 75
	}
}

tradition_seafaring = {
	category = societal

	layers = {
		0 = martial
		1 = western
		4 = ship.dds
	}
	
	can_pick = {
		custom_description = {
			text = percentage_of_culture_on_coast_desc
			any_culture_county = {
				percent >= 0.5
				any_county_province = {
					is_coastal = yes
				}
			}
		}
	}
	
	parameters = {
		trade_ports_give_control_growth = yes
		trade_ports_give_levies = yes
		can_travel_along_rivers = yes
	}
	character_modifier = {
		embarkation_cost_mult = -0.25
	}
	
	cost = {
		prestige = {
			add = {
				value = tradition_base_cost
				desc = BASE
				format = "BASE_VALUE_FORMAT"
			}
			if = {
				limit = {
					NOR = {
						any_in_list = { list = traits this = flag:ethos_bellicose }
						any_in_list = { list = traits this = flag:ethos_bureaucratic }
						any_in_list = { list = traits this = flag:ethos_spiritual }
					}
				}
				add = {
					value = tradition_incompatible_ethos_penalty
					desc = not_bellicose_bureaucratic_or_spiritual_desc
				}
			}
			if = {
				limit = {
					NOT = {
						any_culture_county = {
							percent >= 0.7
							any_county_province = {
								is_coastal = yes
							}
						}
					}
				}
				add = {
					value = tradition_unfulfilled_criteria_penalty
					desc = high_coastal_percentage_desc
				}
			}
			
			multiply = tradition_replacement_cost_if_relevant
		}
	}
	
	ai_will_do = {
		value = 100
		if = { # Make stacking a bit less common
			limit = {
				OR = {
					any_in_list = { list = traits this = flag:tradition_maritime_mercantilism }
					any_in_list = { list = traits this = flag:tradition_fishermen }
				}
			}
			multiply = 0.75
		}
		if = {
			limit = {
				NOT = {
					scope:character = {
						any_sub_realm_county = {
							percent >= 0.3
							any_county_province = {
								is_coastal = yes
							}
						}
					}
				}
			}
			multiply = 0
		}
		if = {
			limit = {
				scope:character = {
					any_sub_realm_county = {
						percent >= 0.7
						any_county_province = {
							is_coastal = yes
						}
					}
				}
			}
			multiply = 2
		}
	}
}

tradition_storytellers = {
	category = societal

	layers = {
		0 = learning
		1 = mena
		4 = ceremony.dds
	}

	can_pick = {
	}
	
	character_modifier = {
 		owned_scheme_secrecy_add  = -15
	}
	parameters = {
		better_ward_education = yes
	}
	
	cost = {
		prestige = {
			add = {
				value = tradition_base_cost
				desc = BASE
				format = "BASE_VALUE_FORMAT"
			}
			if = {
				limit = {
					NOR = {
						any_in_list = { list = traits this = flag:ethos_courtly }
						any_in_list = { list = traits this = flag:ethos_communal }
						any_in_list = { list = traits this = flag:ethos_stoic }
					}
				}
				add = {
					value = tradition_incompatible_ethos_penalty
					desc = not_courtly_communal_or_stoic_desc
				}
			}
			if = {
				limit = {
					trigger_if = {
						limit = {
							scope:character = {
								is_ai = no
							}
						}
						NOT = {
							any_ruler = {
								count >= 3
								culture = prev
								primary_title.tier >= tier_county
								has_trait = poet
							}
						}
					}
					trigger_else = {
						always = no
					}
				}
				add = {
					value = tradition_unfulfilled_criteria_penalty
					desc = rulers_with_poet_desc
				}
			}
			
			multiply = tradition_replacement_cost_if_relevant
		}
	}
	
	ai_will_do = {
		value = 100
		if = {
			limit = { # Less likely to adopt this tradition for non-tribals, unless any parent culture already has it
				NOR = {
					scope:character = {
						has_government = tribal_government
					}
					any_parent_culture_or_above = {
						has_cultural_tradition = tradition_storytellers
					}
				}
			}
			multiply = 0.5
		}
	}
}

tradition_music_theory = {
	category = societal

	layers = {
		0 = intrigue
		1 = western
		4 = musician.dds
	}

	is_shown = {
		has_ep1_court_positions_dlc_trigger = yes
	}
	
	parameters = {
		gregarious_trait_gives_bonuses = yes
		characters_are_better_court_musicians = yes # Also hooked in to increase the Feast opinion bonus
	}
	
	cost = {
		prestige = {
			add = {
				value = tradition_base_cost
				desc = BASE
				format = "BASE_VALUE_FORMAT"
			}
			if = {
				limit = {
					NOR = {
						any_in_list = { list = traits this = flag:ethos_courtly }
						any_in_list = { list = traits this = flag:ethos_communal }
						any_in_list = { list = traits this = flag:ethos_spiritual }
					}
				}
				add = {
					value = tradition_incompatible_ethos_penalty
					desc = not_courtly_communal_or_spiritual_desc
				}
			}
			if = {
				limit = {
					trigger_if = {
						limit = {
							scope:character = {
								is_ai = no
							}
						}
						NOT = {
							any_ruler = {
								count >= 3
								culture = prev
								primary_title.tier >= tier_county
								has_trait = poet
							}
						}
					}
					trigger_else = {
						always = no
					}
				}
				add = {
					value = tradition_unfulfilled_criteria_penalty
					desc = rulers_with_poet_desc
				}
			}
			
			multiply = tradition_replacement_cost_if_relevant
		}
	}
	
	ai_will_do = {
		value = 100
		if = {
			limit = { # AI should avoid stacking traditions for court positions
				any_in_list = { list = traits this = flag:tradition_poetry }
			}
			multiply = 0.25
		}
	}
}

tradition_poetry = {
	category = societal

	layers = {
		0 = diplo
		1 = western
		4 = quill.dds
	}

	can_pick = {
	}
	
	parameters = {
		poet_trait_gives_bonuses = yes
		poet_trait_more_common = yes
		characters_are_better_court_poets = yes
	}
	
	cost = {
		prestige = {
			add = {
				value = tradition_base_cost
				desc = BASE
				format = "BASE_VALUE_FORMAT"
			}
			if = {
				limit = {
					NOR = {
						any_in_list = { list = traits this = flag:ethos_courtly }
						any_in_list = { list = traits this = flag:ethos_communal }
						any_in_list = { list = traits this = flag:ethos_spiritual }
					}
				}
				add = {
					value = tradition_incompatible_ethos_penalty
					desc = not_courtly_communal_or_spiritual_desc
				}
			}
			if = {
				limit = {
					trigger_if = {
						limit = {
							scope:character = {
								is_ai = no
							}
						}
						NOT = {
							any_ruler = {
								count >= 3
								culture = prev
								primary_title.tier >= tier_county
								has_trait = poet
							}
						}
					}
					trigger_else = {
						always = no
					}
				}
				add = {
					value = tradition_unfulfilled_criteria_penalty
					desc = rulers_with_poet_desc
				}
			}
			
			multiply = tradition_replacement_cost_if_relevant
		}
	}
	
	ai_will_do = {
		value = 100
		if = {
			limit = { # AI should avoid stacking traditions for courtly court positions
				any_in_list = { list = traits this = flag:tradition_music_theory }
			}
			multiply = 0.25
		}
	}
}

tradition_fishermen = {
	category = societal

	layers = {
		0 = steward
		1 = mediterranean
		4 = ship.dds
	}
	
	can_pick = {
		custom_description = {
			text = culture_on_coast_desc
			any_culture_county = {
				any_county_province = {
					is_coastal = yes
				}
			}
		}
	}
	
	parameters = {
		coastal_holdings_give_defensive_bonus = yes
	}
	
	character_modifier = {
		coastal_advantage = 5
		supply_capacity_mult = 0.5
	}
	
	cost = {
		prestige = {
			add = {
				value = tradition_base_cost
				desc = BASE
				format = "BASE_VALUE_FORMAT"
			}
			if = {
				limit = {
					any_in_list = { list = traits this = flag:ethos_bellicose }
				}
				add = {
					value = tradition_incompatible_ethos_penalty
					desc = culture_not_bellicose
				}
			}
			if = {
				limit = {
					NOT = {
						any_culture_county = {
							percent >= 0.3
							any_county_province = {
								is_coastal = yes
							}
						}
					}
				}
				add = {
					value = tradition_unfulfilled_criteria_penalty
					desc = coastal_percentage_desc
				}
			}
			
			multiply = tradition_replacement_cost_if_relevant
		}
	}
	
	ai_will_do = {
		value = 100
		if = { # Make stacking a bit less common
			limit = {
				OR = {
					any_in_list = { list = traits this = flag:tradition_maritime_mercantilism }
					any_in_list = { list = traits this = flag:tradition_seafaring }
				}
			}
			multiply = 0.75
		}
		if = {
			limit = {
				NOT = {
					scope:character = {
						any_sub_realm_county = {
							percent >= 0.3
							any_county_province = {
								is_coastal = yes
							}
						}
					}
				}
			}
			multiply = 0
		}
	}
}

tradition_mendicant_mystics = {
	category = societal

	layers = {
		0 = learning
		1 = indian
		4 = speech.dds
	}
	
	parameters = {
		mystic_trait_gives_bonuses = yes
		mystic_trait_more_common = yes
		mendicant_mystics_may_appear = yes
	}

	cost = {
		prestige = {
			add = {
				value = tradition_base_cost
				desc = BASE
				format = "BASE_VALUE_FORMAT"
			}
			if = {
				limit = {
					NOR = {
						any_in_list = { list = traits this = flag:ethos_communal }
						any_in_list = { list = traits this = flag:ethos_spiritual }
					}
				}
				add = {
					value = tradition_incompatible_ethos_penalty
					desc = not_communal_or_spiritual_desc
				}
			}
			if = {
				limit = {
					trigger_if = {
						limit = {
							scope:character = {
								is_ai = no
							}
						}
						NOT = {
							any_ruler = {
								count >= 3
								culture = prev
								primary_title.tier >= tier_county
								has_trait = lifestyle_mystic
							}
						}
					}
					trigger_else = {
						always = no
					}
				}
				add = {
					value = tradition_unfulfilled_criteria_penalty
					desc = rulers_with_mystic_desc
				}
			}
			
			multiply = tradition_replacement_cost_if_relevant
		}
	}
	
	ai_will_do = {
		value = 100
		if = {
			limit = {
				NOT = {
					any_in_list = { list = traits this = flag:ethos_spiritual }
				}
			}
			multiply = 0.7
		}
	}
}

tradition_warrior_culture = {
	category = societal

	layers = {
		0 = martial
		1 = western
		4 = soldiers.dds
	}
	
	is_shown = {
	}
	can_pick = {
		culture_not_pacifistic_trigger = yes
		scope:character = {
			has_government = tribal_government
		}
	}
	
	parameters = {
		strong_traits_more_valued = yes
		strong_traits_more_common = yes
		weak_traits_looked_down_upon = yes
		rowdy_trait_more_common = yes
		pensive_trait_less_common = yes
	}
	character_modifier = {
		cultural_head_fascination_mult = -0.1
		ai_boldness = 25
	}
	cost = {
		prestige = {
			add = {
				value = tradition_base_cost
				desc = BASE
				format = "BASE_VALUE_FORMAT"
			}
			if = {
				limit = {
					NOR = {
						any_in_list = { list = traits this = flag:ethos_bellicose }
						any_in_list = { list = traits this = flag:ethos_spiritual }
					}
				}
				add = {
					value = tradition_incompatible_ethos_penalty
					desc = not_bellicose_or_spiritual_desc
				}
			}
			if = {
				limit = {
					trigger_if = {
						limit = {
							scope:character = {
								is_ai = no
							}
						}
						NOT = {
							any_ruler = {
								count >= 3
								culture = prev
								primary_title.tier >= tier_county
								OR = {	
									has_trait = strong
									has_trait = physique_good
								}
							}
						}
					}
					trigger_else = {
						always = no
					}
				}
				add = {
					value = tradition_unfulfilled_criteria_penalty
					desc = strong_rulers_desc
				}
			}
			
			multiply = tradition_replacement_cost_if_relevant
		}
	}
	ai_will_do = {
		value = 100
		if = {
			limit = {
				NOT = {
					any_in_list = { list = traits this = flag:ethos_bellicose }
				}
			}
			multiply = 0
		}
	}
}

tradition_martial_admiration = {
	category = societal

	layers = {
		0 = martial
		1 = indian
		4 = knight.dds
	}
	
	is_shown = {
	}

	can_pick = {
		culture_not_pacifistic_trigger = yes
	}

	parameters = {
		martial_education_more_valued = yes
		prowess_traits_more_valued = yes
		blademaster_trait_bonuses = yes
		craven_and_content_traits_looked_down_upon = yes
		knights_slightly_more_prone_to_injury = yes
		can_duel_rivals = yes
	}
	
	character_modifier = {
		knight_limit = 2
		negate_prowess_penalty_add = 5 # Wounded knights fight better!
	}
	
	cost = {
		prestige = {
			add = {
				value = tradition_base_cost
				desc = BASE
				format = "BASE_VALUE_FORMAT"
			}
			if = {
				limit = {
					NOR = {
						any_in_list = { list = traits this = flag:ethos_bellicose }
						any_in_list = { list = traits this = flag:ethos_stoic }
					}
				}
				add = {
					value = tradition_incompatible_ethos_penalty
					desc = not_bellicose_or_stoic_desc
				}
			}
			if = {
				limit = {
					NOT = {
						scope:character = {
							any_knight = {
								count >= 6
								prowess >= 12
							}
						}
					}
				}
				add = {
					value = tradition_unfulfilled_criteria_penalty
					desc = knights_with_prowess_desc
				}
			}
			
			multiply = tradition_replacement_cost_if_relevant
		}
	}
	ai_will_do = {
		value = 100
		if = {
			limit = {
				NOT = {
					any_in_list = { list = traits this = flag:ethos_bellicose }
				}
			}
			multiply = 0.25
		}
	}
}

tradition_philosopher_culture = {
	category = societal

	layers = {
		0 = learning
		1 = indian
		4 = philosopher.dds
	}
	
	can_pick = {
		custom_description = {
			text = culture_not_bellicose
			NOT = {
				any_in_list = { list = traits this = flag:ethos_bellicose }
			}
		}
		NOT = { has_cultural_tradition = tradition_warrior_culture }
	}
	
	parameters = {
		pensive_trait_more_common = yes
		rowdy_trait_less_common = yes
		innovation_from_learning_traits = yes
	}
	character_modifier = {
		monthly_learning_lifestyle_xp_gain_mult = 0.2
		learning_per_prestige_level = 1
	}
	
	cost = {
		prestige = {
			add = {
				value = tradition_base_cost
				desc = BASE
				format = "BASE_VALUE_FORMAT"
			}
			if = {
				limit = {
					NOR = {
						any_in_list = { list = traits this = flag:ethos_courtly }
						any_in_list = { list = traits this = flag:ethos_communal }
						any_in_list = { list = traits this = flag:ethos_spiritual }
					}
				}
				add = {
					value = tradition_incompatible_ethos_penalty
					desc = not_courtly_communal_or_spiritual_desc
				}
			}
			if = {
				limit = {
					trigger_if = {
						limit = {
							scope:character = {
								is_ai = no
							}
						}
						NOT = {
							any_ruler = {
								count >= 5
								culture = prev
								primary_title.tier >= tier_county
								has_trait = scholar
							}
						}
					}
					trigger_else = {
						always = no
					}
				}
				add = {
					value = tradition_unfulfilled_criteria_penalty
					desc = rulers_with_scholar_desc
				}
			}
			
			multiply = tradition_replacement_cost_if_relevant
		}
	}
	
	ai_will_do = {
		value = 100
		if = {
			limit = {
				NOR = {
					any_in_list = { list = traits this = flag:ethos_communal }
					any_in_list = { list = traits this = flag:ethos_courtly }
					any_in_list = { list = traits this = flag:ethos_spiritual }
				}
			}
			multiply = 0
		}
	}
}

tradition_welcoming = {
	category = societal

	layers = {
		0 = diplo
		1 = mena
		4 = diplomat.dds
	}
	
	parameters = {
		diplomacy_education_better_outcomes = yes
		charming_trait_more_common = yes
	}
	character_modifier = {
		monthly_court_grandeur_change_mult = 0.15
		owned_personal_scheme_success_chance_add = 10
		enemy_hostile_scheme_success_chance_add = 10
	}
	cost = {
		prestige = {
			add = {
				value = tradition_base_cost
				desc = BASE
				format = "BASE_VALUE_FORMAT"
			}
			if = {
				limit = {
					NOR = {
						any_in_list = { list = traits this = flag:ethos_communal }
						any_in_list = { list = traits this = flag:ethos_egalitarian }
						any_in_list = { list = traits this = flag:ethos_stoic }
					}
				}
				add = {
					value = tradition_incompatible_ethos_penalty
					desc = not_communal_egalitarian_or_stoic_desc
				}
			}
			if = {
				limit = {
					trigger_if = {
						limit = {
							scope:character = {
								is_ai = no
							}
						}
						NOT = {
							any_ruler = {
								count >= 5
								culture = prev
								primary_title.tier >= tier_county
								has_trait = education_diplomacy_4
							}
						}
					}
					trigger_else = {
						always = no
					}
				}
				add = {
					value = tradition_unfulfilled_criteria_penalty
					desc = rulers_with_diplomacy_edu_desc
				}
			}
			
			multiply = tradition_replacement_cost_if_relevant
		}
	}
	ai_will_do = {
		value = 100
		if = {
			limit = {
				OR = {
					any_in_list = { list = traits this = flag:tradition_eye_for_an_eye }
					any_in_list = { list = traits this = flag:tradition_zealous_people }
					any_in_list = { list = traits this = flag:tradition_forbearing }
					any_in_list = { list = traits this = flag:tradition_equitable }
					any_in_list = { list = traits this = flag:tradition_charitable }
					any_in_list = { list = traits this = flag:tradition_modest }
				}
			}
			multiply = 0.1
		}
	}
}

tradition_eye_for_an_eye = {
	category = societal

	layers = {
		0 = martial
		1 = mena
		4 = king.dds
	}
	
	parameters = {
		vengeful_trait_more_common = yes
		vengeful_positive_forgiving_negative = yes
		rivalries_more_common = yes
		hostile_action_vs_rival_bonuses = yes
	}
	character_modifier = {
		dread_baseline_add = 10
	}
	cost = {
		prestige = {
			add = {
				value = tradition_base_cost
				desc = BASE
				format = "BASE_VALUE_FORMAT"
			}
			if = {
				limit = {
					NOR = {
						any_in_list = { list = traits this = flag:ethos_communal }
						any_in_list = { list = traits this = flag:ethos_bellicose }
					}
				}
				add = {
					value = tradition_incompatible_ethos_penalty
					desc = not_bellicose_or_communal_desc
				}
			}
			if = {
				limit = {
					trigger_if = {
						limit = {
							scope:character = {
								is_ai = no
							}
						}
						NOT = {
							any_ruler = {
								count >= 5
								culture = prev
								primary_title.tier >= tier_county
								has_trait = vengeful
							}
						}
					}
					trigger_else = {
						always = no
					}
				}
				add = {
					value = tradition_unfulfilled_criteria_penalty
					desc = rulers_with_vengeful_desc
				}
			}
			
			multiply = tradition_replacement_cost_if_relevant
		}
	}
	ai_will_do = {
		value = 100
		if = {
			limit = {
				OR = {
					any_in_list = { list = traits this = flag:tradition_welcoming }
					any_in_list = { list = traits this = flag:tradition_zealous_people }
					any_in_list = { list = traits this = flag:tradition_forbearing }
					any_in_list = { list = traits this = flag:tradition_equitable }
					any_in_list = { list = traits this = flag:tradition_charitable }
					any_in_list = { list = traits this = flag:tradition_modest }
				}
			}
			multiply = 0.1
		}
	}
}

tradition_zealous_people = {
	category = societal

	layers = {
		0 = learning
		1 = mediterranean
		4 = speech.dds
	}
	
	parameters = {
		zealous_trait_more_common = yes
		humble_trait_more_common = yes
		harder_to_convert_character_faith = yes
		harder_to_convert_county_faith = yes
	}
	character_modifier = {
		opinion_of_different_faith = -15
		ai_zeal = 25
	}
	cost = {
		prestige = {
			add = {
				value = tradition_base_cost
				desc = BASE
				format = "BASE_VALUE_FORMAT"
			}
			if = {
				limit = {
					NOR = {
						any_in_list = { list = traits this = flag:ethos_spiritual }
						any_in_list = { list = traits this = flag:ethos_communal }
					}
				}
				add = {
					value = tradition_incompatible_ethos_penalty
					desc = not_spiritual_or_communal_desc
				}
			}
			if = {
				limit = {
					trigger_if = {
						limit = {
							scope:character = {
								is_ai = no
							}
						}
						NOT = {
							any_ruler = {
								count >= 5
								culture = prev
								primary_title.tier >= tier_county
								has_trait = zealous
							}
						}
					}
					trigger_else = {
						always = no
					}
				}
				add = {
					value = tradition_unfulfilled_criteria_penalty
					desc = rulers_with_zealous_desc
				}
			}
			
			multiply = tradition_replacement_cost_if_relevant
		}
	}
	ai_will_do = {
		value = 100
		if = {
			limit = {
				OR = {
					any_in_list = { list = traits this = flag:tradition_welcoming }
					any_in_list = { list = traits this = flag:tradition_eye_for_an_eye }
					any_in_list = { list = traits this = flag:tradition_forbearing }
					any_in_list = { list = traits this = flag:tradition_equitable }
					any_in_list = { list = traits this = flag:tradition_charitable }
					any_in_list = { list = traits this = flag:tradition_modest }
				}
			}
			multiply = 0.1
		}
	}
}

tradition_forbearing = {
	category = societal

	layers = {
		0 = intrigue
		1 = mediterranean
		4 = philosopher.dds
	}
	
	parameters = {
		patient_trait_more_common = yes
		calm_trait_more_common = yes
	}
	character_modifier = {
		stress_gain_mult = -0.1
		dread_baseline_add = -5
		
		ai_war_cooldown = 3
	}
	cost = {
		prestige = {
			add = {
				value = tradition_base_cost
				desc = BASE
				format = "BASE_VALUE_FORMAT"
			}
			if = {
				limit = {
					NOR = {
						any_in_list = { list = traits this = flag:ethos_spiritual }
						any_in_list = { list = traits this = flag:ethos_stoic }
					}
				}
				add = {
					value = tradition_incompatible_ethos_penalty
					desc = not_stoic_or_spiritual_desc
				}
			}
			if = {
				limit = {
					trigger_if = {
						limit = {
							scope:character = {
								is_ai = no
							}
						}
						NOT = {
							any_ruler = {
								count >= 5
								culture = prev
								primary_title.tier >= tier_county
								has_trait = patient
							}
						}
					}
					trigger_else = {
						always = no
					}
				}
				add = {
					value = tradition_unfulfilled_criteria_penalty
					desc = rulers_with_patient_desc
				}
			}
			
			multiply = tradition_replacement_cost_if_relevant
		}
	}
	ai_will_do = {
		value = 100
		if = {
			limit = {
				OR = {
					any_in_list = { list = traits this = flag:tradition_welcoming }
					any_in_list = { list = traits this = flag:tradition_eye_for_an_eye }
					any_in_list = { list = traits this = flag:tradition_zealous_people }
					any_in_list = { list = traits this = flag:tradition_equitable }
					any_in_list = { list = traits this = flag:tradition_charitable }
					any_in_list = { list = traits this = flag:tradition_modest }
				}
			}
			multiply = 0.1
		}
	}
}

tradition_equitable = {
	category = societal

	layers = {
		0 = diplo
		1 = mediterranean
		4 = conversation.dds
	}
	
	parameters = {
		just_trait_more_common = yes
		honest_trait_more_common = yes
	}
	character_modifier = {
		hostile_scheme_power_mult = -0.3
	}
	cost = {
		prestige = {
			add = {
				value = tradition_base_cost
				desc = BASE
				format = "BASE_VALUE_FORMAT"
			}
			if = {
				limit = {
					NOR = {
						any_in_list = { list = traits this = flag:ethos_egalitarian }
						any_in_list = { list = traits this = flag:ethos_stoic }
					}
				}
				add = {
					value = tradition_incompatible_ethos_penalty
					desc = not_stoic_or_egalitarian_desc
				}
			}
			if = {
				limit = {
					trigger_if = {
						limit = {
							scope:character = {
								is_ai = no
							}
						}
						NOT = {
							any_ruler = {
								count >= 5
								culture = prev
								primary_title.tier >= tier_county
								has_trait = just
							}
						}
					}
					trigger_else = {
						always = no
					}
				}
				add = {
					value = tradition_unfulfilled_criteria_penalty
					desc = rulers_with_just_desc
				}
			}
			
			multiply = tradition_replacement_cost_if_relevant
		}
	}
	
	ai_will_do = {
		value = 100
		if = {
			limit = {
				OR = {
					any_in_list = { list = traits this = flag:tradition_welcoming }
					any_in_list = { list = traits this = flag:tradition_eye_for_an_eye }
					any_in_list = { list = traits this = flag:tradition_zealous_people }
					any_in_list = { list = traits this = flag:tradition_forbearing }
					any_in_list = { list = traits this = flag:tradition_charitable }
					any_in_list = { list = traits this = flag:tradition_modest }
				}
			}
			multiply = 0.1
		}
	}
}

tradition_charitable = {
	category = societal

	layers = {
		0 = diplo
		1 = mena
		4 = ceremony.dds
	}
	
	parameters = {
		generous_trait_more_common = yes
		compassionate_trait_more_common = yes
		more_gift_opinion = yes
		gives_more_gifts = yes
	}
	character_modifier = {
		general_opinion = 5
		monthly_income_mult = -0.03
		ai_greed = -25
	}
	cost = {
		prestige = {
			add = {
				value = tradition_base_cost
				desc = BASE
				format = "BASE_VALUE_FORMAT"
			}
			if = {
				limit = {
					NOR = {
						any_in_list = { list = traits this = flag:ethos_communal }
						any_in_list = { list = traits this = flag:ethos_spiritual }
					}
				}
				add = {
					value = tradition_incompatible_ethos_penalty
					desc = not_spiritual_or_communal_desc
				}
			}
			if = {
				limit = {
					trigger_if = {
						limit = {
							scope:character = {
								is_ai = no
							}
						}
						NOT = {
							any_ruler = {
								count >= 5
								culture = prev
								primary_title.tier >= tier_county
								has_trait = generous
							}
						}
					}
					trigger_else = {
						always = no
					}
				}
				add = {
					value = tradition_unfulfilled_criteria_penalty
					desc = rulers_with_generous_desc
				}
			}
			
			multiply = tradition_replacement_cost_if_relevant
		}
	}
	ai_will_do = {
		value = 100
		if = {
			limit = {
				OR = {
					any_in_list = { list = traits this = flag:tradition_welcoming }
					any_in_list = { list = traits this = flag:tradition_eye_for_an_eye }
					any_in_list = { list = traits this = flag:tradition_zealous_people }
					any_in_list = { list = traits this = flag:tradition_forbearing }
					any_in_list = { list = traits this = flag:tradition_equitable }
					any_in_list = { list = traits this = flag:tradition_modest }
				}
			}
			multiply = 0.1
		}
	}
}

tradition_modest = {
	category = societal

	layers = {
		0 = learning
		1 = indian
		4 = artisan.dds
	}
	
	parameters = {
		temperate_trait_more_common = yes
		introverted_trait_bonuses = yes
		ambitious_trait_penalty = yes
	}
	character_modifier = {
		monthly_prestige_gain_mult = -0.1
		ai_boldness = -25
	}
	cost = {
		prestige = {
			add = {
				value = tradition_base_cost
				desc = BASE
				format = "BASE_VALUE_FORMAT"
			}
			if = {
				limit = {
					NOR = {
						any_in_list = { list = traits this = flag:ethos_stoic }
						any_in_list = { list = traits this = flag:ethos_spiritual }
					}
				}
				add = {
					value = tradition_incompatible_ethos_penalty
					desc = not_stoic_or_spiritual_desc
				}
			}
			if = {
				limit = {
					trigger_if = {
						limit = {
							scope:character = {
								is_ai = no
							}
						}
						NOT = {
							any_ruler = {
								count >= 5
								culture = prev
								primary_title.tier >= tier_county
								has_trait = temperate
							}
						}
					}
					trigger_else = {
						always = no
					}
				}
				add = {
					value = tradition_unfulfilled_criteria_penalty
					desc = rulers_with_temperate_desc
				}
			}
			
			multiply = tradition_replacement_cost_if_relevant
		}
	}
	ai_will_do = {
		value = 100
		if = {
			limit = {
				OR = {
					any_in_list = { list = traits this = flag:tradition_welcoming }
					any_in_list = { list = traits this = flag:tradition_eye_for_an_eye }
					any_in_list = { list = traits this = flag:tradition_zealous_people }
					any_in_list = { list = traits this = flag:tradition_forbearing }
					any_in_list = { list = traits this = flag:tradition_equitable }
					any_in_list = { list = traits this = flag:tradition_charitable }
				}
			}
			multiply = 0.1
		}
	}
}

tradition_practiced_pirates = {
	category = societal

	layers = {
		0 = intrigue
		1 = mediterranean
		4 = battle.dds
	}
	
	can_pick = {
		custom_description = {
			text = percentage_of_culture_on_coast_desc
			any_culture_county = {
				percent >= 0.5
				any_county_province = {
					is_coastal = yes
				}
			}
		}
	}
	
	parameters = {
		culture_can_raid_at_sea_even_if_feudal = yes
		not_tribal_raiding_malus = yes
	}

	character_modifier = {
		max_loot_mult = 0.25
	}
	
	cost = {
		prestige = {
			add = {
				value = tradition_base_cost
				desc = BASE
				format = "BASE_VALUE_FORMAT"
			}
			# Ethos requirement.
			if = {
				limit = {
					NOT = {
						any_in_list = { list = traits this = flag:ethos_bellicose }
					}
				}
				add = {
					value = tradition_incompatible_ethos_penalty
					desc = not_bellicose_desc
				}
			}
			# Coastal requirement.
			if = {
				limit = {
					NOT = {
						any_culture_county = {
							percent >= 0.7
							any_county_province = {
								is_coastal = yes
							}
						}
					}
				}
				add = {
					value = tradition_unfulfilled_criteria_penalty
					desc = high_coastal_percentage_desc
				}
			}
			
			multiply = tradition_replacement_cost_if_relevant
		}
	}
	
	ai_will_do = {
		value = 50
	}
}

tradition_life_is_just_a_joke = {
	category = societal

	layers = {
		0 = intrigue
		1 = western
		4 = noble.dds
	}
	
	parameters = {
		# Gregarious, Content, Cynical, & Fickle all gain +5 same-culture opinion.
		life_is_a_joke_trait_same_culture_opinion = yes
		#lose stress on war declaration
		war_stress_loss = yes 
		#AI boldness increased
		added_character_boldness = yes
	}

	character_modifier = {
		ai_boldness = high_positive_ai_value
	}
	
	cost = {
		prestige = {
			add = {
				value = tradition_base_cost
				desc = BASE
				format = "BASE_VALUE_FORMAT"
			}
			if = {
				limit = {
					NOR = {
						any_in_list = { list = traits this = flag:ethos_stoic }
						any_in_list = { list = traits this = flag:ethos_communal }
					}
				}
				add = {
					value = tradition_incompatible_ethos_penalty
					desc = not_stoic_or_communal_desc
				}
			}
			if = {
				limit = {
					trigger_if = {
						limit = {
							scope:character = {
								is_ai = no
							}
						}
						NOT = {
							any_ruler = {
								count >= 5
								culture = prev
								primary_title.tier >= tier_county
								has_trait = cynical
							}
						}
					}
					trigger_else = {
						always = no
					}
				}
				add = {
					value = tradition_unfulfilled_criteria_penalty
					desc = rulers_with_cynical_desc
				}
			}
			
			multiply = tradition_replacement_cost_if_relevant
		}
	}

	ai_will_do = { value = 0 } # The AI never pick this
}

tradition_artisans = {
	category = societal

	layers = {
		0 = steward
		1 = mena
		4 = artisan.dds
	}
	
	is_shown = {
		has_dlc_feature = royal_court
	}
	
	parameters = {
		improved_artisan_inspiration = yes
		improved_weaver_inspiration = yes
	}
	county_modifier = {
		build_gold_cost = -0.1
	}
	
	cost = {
		prestige = {
			add = {
				value = tradition_base_cost
				desc = BASE
				format = "BASE_VALUE_FORMAT"
			}
			if = {
				limit = {
					NOR = {
						any_in_list = { list = traits this = flag:ethos_courtly }
						any_in_list = { list = traits this = flag:ethos_communal }
						any_in_list = { list = traits this = flag:ethos_spiritual }
					}
				}
				add = {
					value = tradition_incompatible_ethos_penalty
					desc = not_courtly_communal_or_spiritual_desc
				}
			}
			if = {
				limit = {
					trigger_if = {
						limit = {
							scope:character = {
								is_ai = no
							}
						}
						NOT = {
							any_ruler = {
								count >= 3
								culture = prev
								primary_title.tier >= tier_county
								OR = {
									has_completed_inspiration = yes
									any_courtier_or_guest = {
										OR = {
											has_completed_inspiration = yes
											exists = inspiration
										}
									}
								}
							}
						}
					}
					trigger_else = {
						always = no
					}
				}
				add = {
					value = tradition_unfulfilled_criteria_penalty
					desc = has_courtier_or_guest_with_inspiration_desc
				}
			}

			multiply = tradition_replacement_cost_if_relevant
		}
	}

	ai_will_do = {
		value = 100
	}
}
