﻿##############
# WAR VALUES #
##############

# Truce Durations
standard_truce_duration_days = 1825
flexible_truces_perk_truce_duration_days = 1375

#Victory Prestige Experience Gain
mongol_invasion_cb_prestige_experience_gain = 10

#Ally contribution prestige gain
mongol_invasion_cb_ally_prestige = 100

#Prestige gain
mongol_invasion_cb_prestige_gain = 250

#White peace prestige values
mongol_invasion_cb_prestige_white_peace = -100

# Determined Independence Cultural Tradition
determined_independence_defensive_advantage_value = 15

#############
# Raid
#############

# Practiced Pirates Cultural Tradition
not_tribal_raid_prestige_multiplier = 1.5

raid_gold_value = {	#How much cash does this settlement generate in a raid?
	value = monthly_income
	multiply = 10

	#Sensible max-mins.
	min = 30
	max = 100

	#Give a whole number.
	ceiling = yes
}

viking_conquest_ai_score_value = {
	value = 1
	scope:attacker = {
		if = {
			limit = { can_use_viking_invasion_cbs_trigger = yes }
			if = {
				limit = { NOT = { culture = scope:defender.culture } }
				add = 0.5
				if = {
					limit = {
						NOT = { culture = { has_same_culture_heritage = scope:defender.culture } }
					}
					add = 0.5
				}
			}
			if = {
				limit = { NOT = { faith = scope:defender.faith } }
				add = 0.5
				if = {
					limit = { NOT = { faith.religion = scope:defender.faith.religion } }
					add = 0.5
				}
			}
		}
		if = {
			limit = {
				scope:defender.faith = scope:attacker.faith
			}
			multiply = 0.2
		}
	}
}

# Raid for captives

raid_for_captives_ai_score_value = {
	value = 10
	scope:attacker = {
		if = {
			limit = {
				piety < 0
			}
			add = 15
		}
		if = {
			limit = {
				ai_zeal >= medium_positive_ai_value
				piety < 500
			}
			add = 5
		}
		if = {
			limit = {
				ai_zeal >= very_high_positive_ai_value
			}
			add = ai_zeal
		}
		if = {
			limit = {
				piety > 500
			}
			multiply = 0.5
		}
		if = {
			limit = {
				ai_zeal < 0
				NOT = {
					piety < -100
				}
			}
			multiply = 0
		}
	}
}

# Artifact wars

relic_artifact_war_ai_score_value = {
	value = 10
	scope:attacker = {
		if = {
			limit = {
				ai_greed > 0
			}
			add = {
				value = ai_greed
				divide = 2
			}
		}
		if = {
			limit = {
				ai_zeal > 0
			}
			add = ai_zeal
		}
	}
}

artifact_war_ai_score_value = {
	value = 10
	scope:attacker = {
		if = {
			limit = {
				ai_greed > 0
			}
			add = {
				value = ai_greed
				divide = 2
			}
		}
		if = {
			limit = {
				ai_vengefulness > 0
			}
			add = ai_vengefulness
		}
	}
}

# Vassalization CB

vassalize_default_size = 3

vassalize_growth_per_innovation = 2

vassalization_size_limit = {
	value = vassalize_default_size
	scope:attacker = {
		if = {
			limit = {
				culture = {
					has_innovation = innovation_border_stones
				}
			}
			add = vassalize_growth_per_innovation
		}
		if = {
			limit = {
				culture = {
					has_innovation = innovation_conscription
				}
			}
			add = vassalize_growth_per_innovation
		}
		if = {
			limit = {
				culture = {
					has_innovation = innovation_puppet_rulers
				}
			}
			add = vassalize_growth_per_innovation
		}
		if = {
			limit = {
				culture = {
					has_innovation = innovation_raiding_parties
				}
			}
			add = vassalize_growth_per_innovation
		}
	}
}

#############
# Vassalization CB
#############

vassalize_default_size = 3

vassalize_growth_per_innovation = 2

vassalization_size_limit = {
	value = vassalize_default_size
	scope:attacker = {
		if = {
			limit = {
				culture = {
					has_innovation = innovation_border_stones
				}
			}
			add = vassalize_growth_per_innovation
		}
		if = {
			limit = {
				culture = {
					has_innovation = innovation_conscription
				}
			}
			add = vassalize_growth_per_innovation
		}
		if = {
			limit = {
				culture = {
					has_innovation = innovation_puppet_rulers
				}
			}
			add = vassalize_growth_per_innovation
		}
		if = {
			limit = {
				culture = {
					has_innovation = innovation_raiding_parties
				}
			}
			add = vassalize_growth_per_innovation
		}
	}
}

#############
# GHWs
#############
third_of_defenders_strength = {
	value = ghw_defenders_strength
	multiply = 0.33
}

#############
# Siege
#############

siege_base_capture_chance = {
	value = 35

	# Dynasty Perk: Practiced Kidnappers
}
raid_base_capture_chance = {
	value = 20
}

county_control_loss_value = {
	value = -40
}

raid_county_control_loss_value = {
	value = -10
}

#############
# CB Costs
#############

tribal_subjugation_cb_prestige_cost = {
	value = 0
	if = {
		limit = {
			NAND = {
				scope:attacker.faith.religious_head = scope:attacker
				scope:defender.faith = scope:attacker.faith
			}
		}
		add = {
			value = 1000
			desc = CB_BASE_COST
		}
	}
	if = {
		limit = {
			scope:attacker.primary_title = {
				tier = tier_kingdom
			}
		}
		multiply = {
			value = 1.5
			desc = CB_COST_RULES_KINGDOM
		}
	}
	else_if = {
		limit = {
			scope:attacker.primary_title = {
				tier = tier_empire
			}
		}
		multiply = {
			value = 2.5
			desc = CB_COST_RULES_EMPIRE
		}
	}	
	if = {
		limit = {
			scope:attacker = {
				has_government = tribal_government
			}
		}
		multiply = {
			value = 0.5
			desc = CB_TRIBAL_COST
		}
	}

	#Innovation Prestige Discounts
	if = {
		limit = {
			scope:attacker = {
				triple_cb_discount_trigger = yes
			}
		}
		multiply = {
			value = 0.7
			desc = CB_ATTACKER_INNOVATIONS
		}
	}
	else_if = {
		limit = {
			scope:attacker = {
				double_cb_discount_trigger = yes
			}
		}
		multiply = {
			value = 0.8
			desc = CB_ATTACKER_INNOVATIONS
		}
	}
	else_if = {
		limit = {
			scope:attacker = {
				single_cb_discount_trigger = yes
			}
		}
		multiply = {
			value = 0.9
			desc = CB_ATTACKER_INNOVATIONS
		}
	}

	# Bellum Justum Perk
	if = {
		limit = {
			scope:attacker = {
				has_perk = bellum_justum_perk
			}
		}
		multiply = {
			add = bellum_justum_discount_percentage
			divide = 100
			desc = CB_ATTACKER_BELLUM_JUSTUM
		}
	}

	# Dynasty Warfare Perk
	if = {
		limit = {
			scope:attacker = {
				has_dynasty = yes
				dynasty = {
					has_dynasty_perk = warfare_legacy_2
				}
			}
		}
		multiply = {
			value = warfare_legacy_2_discount
			desc = CB_ATTACKER_DYNASTY_WARFARE
		}
	}

	# Culture
	if = {
		limit = {
			scope:attacker = {
				culture = {
					has_cultural_parameter = cheaper_cbs
				}
			}
		}
		multiply = {
			value = 0.8
			desc = "CB_ATTACKER_CULTURE"
		}
	}

	# Vassal contract in-realm cost reduction
	if = {
		limit = {
			scope:attacker = {
				is_independent_ruler = no
				vassal_contract_has_flag = vassal_contract_war_override
				liege = scope:defender.liege
			}
		}
		multiply = {
			value = war_declaration_rights_allowed_cost_reduction
			desc = "CB_ATTACKER_VASSAL_CONTRACT"
		}
	}
	
	if = {
		limit = {
			has_game_rule = no_cost_casus_belli_costs
		}
		multiply = {
			value = 0
			desc = CB_GAME_RULE_NO_COST
		}
	}
}

scale_10_war_defender_win = {
	value = 10

	if = {
		limit= {
			scope:defender.culture = {
				has_cultural_parameter = more_fame_for_successful_defensive_wars
			}
		}
		multiply = 2
	}
}
